%YAML 1.1
%TAG !u! tag:unity3d.com,2011:
--- !u!114 &11400000
MonoBehaviour:
  m_ObjectHideFlags: 0
  m_CorrespondingSourceObject: {fileID: 0}
  m_PrefabInstance: {fileID: 0}
  m_PrefabAsset: {fileID: 0}
  m_GameObject: {fileID: 0}
  m_Enabled: 1
  m_EditorHideFlags: 0
  m_Script: {fileID: 11500000, guid: 3659f6d1a9f9245428d36989ef0da280, type: 3}
  m_Name: StrawDataObject
  m_EditorClassIdentifier: 
  drinkDatas:
  - {fileID: 11400000, guid: 64c54ae4bb3ea07408a6dea1713b3bf4, type: 2}
  - {fileID: 11400000, guid: 07e793261a4f30c4780e710804b3bfdd, type: 2}
  - {fileID: 11400000, guid: 4b017d617c36b2e4db280ca33d942986, type: 2}
  - {fileID: 11400000, guid: 4e5b22ce35b53bf4cab65cdb3fc46365, type: 2}
  - {fileID: 11400000, guid: c6790d6a95aaf074fa8014a3a56f066f, type: 2}
