%YAML 1.1
%TAG !u! tag:unity3d.com,2011:
--- !u!114 &11400000
MonoBehaviour:
  m_ObjectHideFlags: 0
  m_CorrespondingSourceObject: {fileID: 0}
  m_PrefabInstance: {fileID: 0}
  m_PrefabAsset: {fileID: 0}
  m_GameObject: {fileID: 0}
  m_Enabled: 1
  m_EditorHideFlags: 0
  m_Script: {fileID: 11500000, guid: f5e12d3486727554d8fbc8781ce28808, type: 3}
  m_Name: CupData 6
  m_EditorClassIdentifier: 
  id: 0
  type: 1
  prefabs:
  - {fileID: 6999152386911250238, guid: dd2d5cc38d9780d4890d31e1912e9237, type: 3}
  sprite: {fileID: 21300000, guid: b88bd41d76237f345bb96fcf81d97ed4, type: 3}
