%YAML 1.1
%TAG !u! tag:unity3d.com,2011:
--- !u!114 &11400000
MonoBehaviour:
  m_ObjectHideFlags: 0
  m_CorrespondingSourceObject: {fileID: 0}
  m_PrefabInstance: {fileID: 0}
  m_PrefabAsset: {fileID: 0}
  m_GameObject: {fileID: 0}
  m_Enabled: 1
  m_EditorHideFlags: 0
  m_Script: {fileID: 11500000, guid: f5e12d3486727554d8fbc8781ce28808, type: 3}
  m_Name: DrinkDataKiwi
  m_EditorClassIdentifier: 
  id: 7
  type: 0
  prefabs:
  - {fileID: 2188535287572122716, guid: 4ed94de8c9fbbed4b8b5748450f601ab, type: 3}
  - {fileID: 6507861568117461819, guid: 114bb62ea198846478f066e5a26ba8d3, type: 3}
  - {fileID: 7834030915443989925, guid: 60c577199e318aa4a821981b5be419f5, type: 3}
  sprite: {fileID: 21300000, guid: 7c0bbe089c8fb7b4796e2df341193749, type: 3}
  icon: {fileID: 0}
