%YAML 1.1
%TAG !u! tag:unity3d.com,2011:
--- !u!114 &11400000
MonoBehaviour:
  m_ObjectHideFlags: 0
  m_CorrespondingSourceObject: {fileID: 0}
  m_PrefabInstance: {fileID: 0}
  m_PrefabAsset: {fileID: 0}
  m_GameObject: {fileID: 0}
  m_Enabled: 1
  m_EditorHideFlags: 0
  m_Script: {fileID: 11500000, guid: f5e12d3486727554d8fbc8781ce28808, type: 3}
  m_Name: DrinkDataIce
  m_EditorClassIdentifier: 
  id: 5
  type: 0
  prefabs:
  - {fileID: 6262954602855138419, guid: 3e11e711c28e8c24796f335ab3ffc8ed, type: 3}
  - {fileID: 6262954602855138419, guid: b098e6cc7d6efd1489418de7c4f00e3f, type: 3}
  - {fileID: 6262954602855138419, guid: a17ee86625e2235489e149d3aa6cfa87, type: 3}
  sprite: {fileID: 21300000, guid: 61cd8fba26e834740ba2838ba0cf17f7, type: 3}
  icon: {fileID: 0}
