%YAML 1.1
%TAG !u! tag:unity3d.com,2011:
--- !u!114 &11400000
MonoBehaviour:
  m_ObjectHideFlags: 0
  m_CorrespondingSourceObject: {fileID: 0}
  m_PrefabInstance: {fileID: 0}
  m_PrefabAsset: {fileID: 0}
  m_GameObject: {fileID: 0}
  m_Enabled: 1
  m_EditorHideFlags: 0
  m_Script: {fileID: 11500000, guid: 3659f6d1a9f9245428d36989ef0da280, type: 3}
  m_Name: DrinkDataObjectFull 8
  m_EditorClassIdentifier: 
  drinkDatas:
  - {fileID: 11400000, guid: 14a4fc1ce5560944ab1e78f8fc6412c8, type: 2}
  - {fileID: 11400000, guid: 1efe4e05223e7894b9b1adb904b8f938, type: 2}
  - {fileID: 11400000, guid: 38f53b8859699364f9e1831aba5d3947, type: 2}
  - {fileID: 11400000, guid: 3f254c285d963fb4a83c9e7a8aac57a1, type: 2}
