%YAML 1.1
%TAG !u! tag:unity3d.com,2011:
--- !u!114 &11400000
MonoBehaviour:
  m_ObjectHideFlags: 0
  m_CorrespondingSourceObject: {fileID: 0}
  m_PrefabInstance: {fileID: 0}
  m_PrefabAsset: {fileID: 0}
  m_GameObject: {fileID: 0}
  m_Enabled: 1
  m_EditorHideFlags: 0
  m_Script: {fileID: 11500000, guid: f7532ffb4e5421848b463b902e8acf5c, type: 3}
  m_Name: Cherry Fruit WATER
  m_EditorClassIdentifier: 
  sprite: {fileID: 21300000, guid: 0157534009188374cbcc01a158c1a257, type: 3}
  dataGamePlay: {fileID: 11400000, guid: 7d5084e56cd479048b294cec95c89bf0, type: 2}
  groupData: {fileID: 11400000, guid: bb494357bc30ddd4ba5717dd39fb8b88, type: 2}
  waterSprite: {fileID: 21300000, guid: 4c5b489a5e4c9124abb9a0df6d0c03d6, type: 3}
  waterBlenderSprite: {fileID: 21300000, guid: 4c5b489a5e4c9124abb9a0df6d0c03d6, type: 3}
