%YAML 1.1
%TAG !u! tag:unity3d.com,2011:
--- !u!114 &11400000
MonoBehaviour:
  m_ObjectHideFlags: 0
  m_CorrespondingSourceObject: {fileID: 0}
  m_PrefabInstance: {fileID: 0}
  m_PrefabAsset: {fileID: 0}
  m_GameObject: {fileID: 0}
  m_Enabled: 1
  m_EditorHideFlags: 0
  m_Script: {fileID: 11500000, guid: f7532ffb4e5421848b463b902e8acf5c, type: 3}
  m_Name: Donaro cocktail WATER
  m_EditorClassIdentifier: 
  sprite: {fileID: 21300000, guid: 13f07a6e0ca00df41a224d25e264d418, type: 3}
  dataGamePlay: {fileID: 11400000, guid: 7d5084e56cd479048b294cec95c89bf0, type: 2}
  groupData: {fileID: 11400000, guid: 12f5a8bd186ef064dae4fb0d5c0fbb86, type: 2}
  waterSprite: {fileID: 21300000, guid: 3cc5848896d46254a99bb11853a715a3, type: 3}
  waterBlenderSprite: {fileID: 21300000, guid: 3cc5848896d46254a99bb11853a715a3, type: 3}
