%YAML 1.1
%TAG !u! tag:unity3d.com,2011:
--- !u!114 &11400000
MonoBehaviour:
  m_ObjectHideFlags: 0
  m_CorrespondingSourceObject: {fileID: 0}
  m_PrefabInstance: {fileID: 0}
  m_PrefabAsset: {fileID: 0}
  m_GameObject: {fileID: 0}
  m_Enabled: 1
  m_EditorHideFlags: 0
  m_Script: {fileID: 11500000, guid: ba8e25186c5bbaf4484da152b7cbdd4e, type: 3}
  m_Name: Group Blackberry Juice
  m_EditorClassIdentifier: 
  datas:
  - {fileID: 11400000, guid: 14a4fc1ce5560944ab1e78f8fc6412c8, type: 2}
  - {fileID: 11400000, guid: 3adbcf88dd5d0a642bf30faa468ad6e8, type: 2}
  - {fileID: 11400000, guid: 514e4aedd43cd214ebabc7665cc62d53, type: 2}
  - {fileID: 11400000, guid: 1efe4e05223e7894b9b1adb904b8f938, type: 2}
