%YAML 1.1
%TAG !u! tag:unity3d.com,2011:
--- !u!687078895 &4343727234628468602
SpriteAtlas:
  m_ObjectHideFlags: 0
  m_CorrespondingSourceObject: {fileID: 0}
  m_PrefabInstance: {fileID: 0}
  m_PrefabAsset: {fileID: 0}
  m_Name: Atlas
  m_EditorData:
    serializedVersion: 2
    textureSettings:
      serializedVersion: 2
      anisoLevel: 1
      compressionQuality: 50
      maxTextureSize: 2048
      textureCompression: 0
      filterMode: 1
      generateMipMaps: 0
      readable: 0
      crunchedCompression: 0
      sRGB: 1
    platformSettings:
    - serializedVersion: 3
      m_BuildTarget: DefaultTexturePlatform
      m_MaxTextureSize: 2048
      m_ResizeAlgorithm: 0
      m_TextureFormat: -1
      m_TextureCompression: 1
      m_CompressionQuality: 50
      m_CrunchedCompression: 0
      m_AllowsAlphaSplitting: 0
      m_Overridden: 0
      m_AndroidETC2FallbackOverride: 0
      m_ForceMaximumCompressionQuality_BC6H_BC7: 0
    packingSettings:
      serializedVersion: 2
      padding: 4
      blockOffset: 1
      allowAlphaSplitting: 0
      enableRotation: 0
      enableTightPacking: 0
    secondaryTextureSettings: {}
    variantMultiplier: 1
    packables:
    - {fileID: 2800000, guid: 63fc277f1255a3f4abbc293f4e2d910c, type: 3}
    - {fileID: 2800000, guid: 0157534009188374cbcc01a158c1a257, type: 3}
    - {fileID: 2800000, guid: 13f07a6e0ca00df41a224d25e264d418, type: 3}
    - {fileID: 2800000, guid: f28a4cf8eaf655841bf87b24389d503f, type: 3}
    - {fileID: 2800000, guid: 4775e1c063341684898622e78974a5de, type: 3}
    - {fileID: 2800000, guid: f1bd13778f1a18b43a6d2cf53ee6cca7, type: 3}
    - {fileID: 2800000, guid: b9dbd7d3a2d78f24b8f1e5d1a8c536c0, type: 3}
    - {fileID: 2800000, guid: 4471356f28553f34b8dd228ff91fee39, type: 3}
    - {fileID: 2800000, guid: 62d24031706718c4e86b6468ad97692e, type: 3}
    - {fileID: 2800000, guid: a453c2b35681bb646a4744e2c54b1a08, type: 3}
    - {fileID: 2800000, guid: 2574d31f333f93b45823ff3a6be15a24, type: 3}
    - {fileID: 2800000, guid: 9f64910b80e82bb48bb58bea4cd39b39, type: 3}
    - {fileID: 2800000, guid: d3cfecc686944a34fae5b24fea68590b, type: 3}
    - {fileID: 2800000, guid: 3e99f3a68a1505041a62d4d03fd8fb84, type: 3}
    bindAsDefault: 1
    isAtlasV2: 0
    cachedData: {fileID: 0}
  m_MasterAtlas: {fileID: 0}
  m_PackedSprites:
  - {fileID: 21300000, guid: 0157534009188374cbcc01a158c1a257, type: 3}
  - {fileID: 21300000, guid: 4775e1c063341684898622e78974a5de, type: 3}
  - {fileID: 21300000, guid: 62d24031706718c4e86b6468ad97692e, type: 3}
  - {fileID: 21300000, guid: a453c2b35681bb646a4744e2c54b1a08, type: 3}
  - {fileID: 21300000, guid: b9dbd7d3a2d78f24b8f1e5d1a8c536c0, type: 3}
  - {fileID: 21300000, guid: 3e99f3a68a1505041a62d4d03fd8fb84, type: 3}
  - {fileID: 21300000, guid: d3cfecc686944a34fae5b24fea68590b, type: 3}
  - {fileID: 21300000, guid: f1bd13778f1a18b43a6d2cf53ee6cca7, type: 3}
  - {fileID: 21300000, guid: f28a4cf8eaf655841bf87b24389d503f, type: 3}
  - {fileID: 21300000, guid: 9f64910b80e82bb48bb58bea4cd39b39, type: 3}
  - {fileID: 21300000, guid: 13f07a6e0ca00df41a224d25e264d418, type: 3}
  - {fileID: 21300000, guid: 2574d31f333f93b45823ff3a6be15a24, type: 3}
  - {fileID: 21300000, guid: 4471356f28553f34b8dd228ff91fee39, type: 3}
  - {fileID: 21300000, guid: 63fc277f1255a3f4abbc293f4e2d910c, type: 3}
  m_PackedSpriteNamesToIndex:
  - CHERRYFRUIT
  - FRESH JUICE
  - STRAWBERRY JUICE
  - 1
  - ICE LEMON JUICE
  - 5
  - 4
  - GRIMACE SHAKE
  - FLOWER COCTAILK
  - 3
  - DONARO
  - 2
  - PEARFRUIT
  - BLACKBERRY JUICE
  m_RenderDataMap: {}
  m_Tag: Atlas
  m_IsVariant: 0
